<?xml version="1.0" encoding="utf-8"?>
<!-- Generator: Adobe Illustrator 23.1.0, SVG Export Plug-In . SVG Version: 6.00 Build 0)  -->
<svg version="1.1" id="Layer_1" xmlns="http://www.w3.org/2000/svg" xmlns:xlink="http://www.w3.org/1999/xlink" x="0px" y="0px"
	 viewBox="0 0 41.45 41.45" style="enable-background:new 0 0 41.45 41.45;" xml:space="preserve">

<path d="M37.99,0H3.45C1.55,0,0,1.55,0,3.45v34.54c0,1.9,1.55,3.45,3.45,3.45h34.54c1.9,0,3.45-1.55,3.45-3.45V3.45
	C41.45,1.55,39.89,0,37.99,0z M31.08,15.97v0.86c0,6.99-4.92,14.68-14.68,14.68c-3.02,0-6.3-0.78-8.63-2.25
	c0.43,0.09,0.86,0.09,1.3,0.09c2.5,0,4.66-0.78,6.48-2.16c-2.33-0.09-4.49-1.38-5.18-3.45c0.35,0.09,3.45,0.86,4.32,0
	c-2.42-0.52-6.04-3.45-6.04-6.04c0.69,0.43,1.73,0.86,2.59,0.86c-1.47-0.95-2.59-2.5-2.59-4.32c0-0.95,0.43-1.81,0.86-2.59
	c2.59,3.19,6.04,4.32,11.22,4.32h0.09c-0.09-0.26-0.09-0.52-0.09-0.86c0-2.94,2.25-5.18,5.18-5.18c1.55,0,2.5,0.69,3.45,1.73
	l0.69,0.69c0.95-0.35,1.9-1.04,2.76-1.55c-0.43,1.21-1.47,2.76-2.59,3.45c1.04-0.17,2.5-0.69,3.45-1.12
	C32.98,14.16,32.12,15.2,31.08,15.97z"/>
</svg>
